INDEX VERSION 1.130+C:\Users\karth\Documents\module_3\3.AdvJava\AdvJavaWorkspace1\.metadata\.plugins\org.eclipse.jdt.core
3312165055.index
2256529200.index
242176372.index
3852244655.index
2782998763.index
585472926.index
2006079928.index
4278764599.index
2653330038.index
3566089501.index
1552878334.index
2758576337.index
1227306570.index
3355708150.index
2071462652.index
1737575566.index
401767567.index
2194716159.index
743109110.index
